[{
    "name": "Web Development Resources",
    "description": "My growing list of web development resources, tools, and articles.",
    "link": "https://resources.bob-humphrey.com/"
  },
  {
    "name": "Instagram Manager",
    "description": "The best hashtags that should be added to my Instagram posts.",
    "link": "https://instagram.bob-humphrey.com/"
  },
  {
    "name": "The Poor, the Invisible, the Outsiders",
    "description": "What Jesus has to say about marginalized people.",
    "link": "https://bible.bob-humphrey.com/"
  },
  {
    "name": "Kyle Humphrey",
    "description": "Online portfolio for a visual effects and animation artist.",
    "link": "https://kyle.bob-humphrey.com/"
  }
]
